{
	"collection": [
		{
			"user": {
				"full_name": "Quang Anh Le",
				"country": null,
				"city": null,
				"track_count": 16,
				"followers_count": 9,
				"followings_count": 0,
				"public_favorites_count": 0,
				"groups_count": 0,
				"description": null,
				"plan": "Free",
				"id": 25058033,
				"uri": "https://api.soundcloud.com/users/25058033",
				"username": "Quang Anh Le",
				"kind": "user",
				"permalink": "quang-anh-le",
				"permalink_url": "http://soundcloud.com/quang-anh-le",
				"first_name": "Quang Anh",
				"avatar_url": "https://i1.sndcdn.com/avatars-000023412635-4vy6zf-large.jpg",
				"last_modified": "2012/09/28 10:04:11 +0000"
			},
			"user_id": 25058033,
			"genre": "Nhac Tre",
			"tag_list": "",
			"duration": 261221,
			"downloadable": false,
			"streamable": true,
			"original_content_size": 4179968,
			"commentable": true,
			"sharing": "public",
			"public": true,
			"created_at": "2012/09/28 10:27:35 +0000",
			"updated_at": "2012/09/28 10:27:35 +0000",
			"isrc": null,
			"state": "finished",
			"embeddable": true,
			"embeddable_by": "all",
			"license": "all-rights-reserved",
			"waveform_url": "https://w1.sndcdn.com/XF9YzHnikB7O_m.png",
			"feedable": false,
			"label_name": "",
			"release_date": "",
			"has_downloads_left": true,
			"purchase_title": null,
			"purchase_url": null,
			"policy": "ALLOW",
			"monetization_model": "NOT_APPLICABLE",
			"visuals": null,
			"permalink": "le-quyen-dang-cay",
			"title": "Le Quyen - Dang Cay",
			"description": "",
			"track_type": null,
			"last_modified": "2012/09/28 10:27:35 +0000",
			"artwork_url": "https://i1.sndcdn.com/artworks-000031165976-rdw9vw-large.jpg",
			"id": 61466227,
			"kind": "track",
			"download_count": 0,
			"secret_token": null,
			"comment_count": 0,
			"reposts_count": 5,
			"download_url": null,
			"permalink_url": "https://soundcloud.com/quang-anh-le/le-quyen-dang-cay",
			"stream_url": "https://api.soundcloud.com/tracks/61466227/stream",
			"likes_count": 20,
			"uri": "https://api.soundcloud.com/tracks/61466227",
			"playback_count": 6558
		}, {
			"user": {
				"full_name": "Nguyen Minh Khoi",
				"country": "Vietnam",
				"city": "Ha Noi",
				"track_count": 1,
				"followers_count": 1,
				"followings_count": 0,
				"public_favorites_count": 1,
				"groups_count": 0,
				"description": null,
				"plan": "Free",
				"id": 29960433,
				"uri": "https://api.soundcloud.com/users/29960433",
				"username": "Khoinm",
				"kind": "user",
				"permalink": "khoinm",
				"permalink_url": "http://soundcloud.com/khoinm",
				"first_name": "Nguyen",
				"avatar_url": "https://i1.sndcdn.com/avatars-000028120960-6wu65q-large.jpg",
				"last_modified": "2012/12/07 10:05:17 +0000"
			},
			"user_id": 29960433,
			"genre": "",
			"tag_list": "",
			"duration": 284472,
			"downloadable": false,
			"streamable": true,
			"original_content_size": 11458528,
			"commentable": true,
			"sharing": "public",
			"public": true,
			"created_at": "2012/12/07 10:11:52 +0000",
			"updated_at": "2012/12/07 10:12:18 +0000",
			"isrc": "",
			"state": "finished",
			"embeddable": true,
			"embeddable_by": "all",
			"license": "all-rights-reserved",
			"waveform_url": "https://w1.sndcdn.com/0kyWQS5PhBoz_m.png",
			"feedable": false,
			"label_name": "",
			"release_date": "",
			"has_downloads_left": true,
			"purchase_title": null,
			"purchase_url": null,
			"policy": "ALLOW",
			"monetization_model": "NOT_APPLICABLE",
			"visuals": null,
			"permalink": "01-mua-nua-dem-le-quyen",
			"title": "01. Mua Nua Dem [Le Quyen]",
			"description": "",
			"track_type": "",
			"last_modified": "2012/12/07 10:12:18 +0000",
			"artwork_url": null,
			"id": 70318060,
			"kind": "track",
			"download_count": 0,
			"secret_token": null,
			"comment_count": 0,
			"reposts_count": 6,
			"download_url": null,
			"permalink_url": "https://soundcloud.com/khoinm/01-mua-nua-dem-le-quyen",
			"stream_url": "https://api.soundcloud.com/tracks/70318060/stream",
			"likes_count": 24,
			"uri": "https://api.soundcloud.com/tracks/70318060",
			"playback_count": 7247
		}, {
			"user": {
				"full_name": "nguyen nguyen",
				"country": "Vietnam",
				"city": "",
				"track_count": 25,
				"followers_count": 9,
				"followings_count": 0,
				"public_favorites_count": 0,
				"groups_count": 0,
				"description": null,
				"plan": "Free",
				"id": 9957392,
				"uri": "https://api.soundcloud.com/users/9957392",
				"username": "Phonho3",
				"kind": "user",
				"permalink": "phonho3",
				"permalink_url": "http://soundcloud.com/phonho3",
				"first_name": "nguyen",
				"avatar_url": "https://i1.sndcdn.com/avatars-000008358899-t3pei1-large.jpg",
				"last_modified": "2011/12/22 04:20:29 +0000"
			},
			"user_id": 9957392,
			"genre": "",
			"tag_list": "",
			"duration": 305095,
			"downloadable": true,
			"streamable": true,
			"original_content_size": 7361920,
			"commentable": true,
			"sharing": "public",
			"public": true,
			"created_at": "2011/12/26 04:34:21 +0000",
			"updated_at": "2011/12/31 11:38:51 +0000",
			"isrc": "",
			"state": "finished",
			"embeddable": true,
			"embeddable_by": "all",
			"license": "all-rights-reserved",
			"waveform_url": "https://w1.sndcdn.com/9n86y6NsPkjR_m.png",
			"feedable": false,
			"label_name": "",
			"release_date": "",
			"has_downloads_left": false,
			"purchase_title": null,
			"purchase_url": null,
			"policy": "ALLOW",
			"monetization_model": "NOT_APPLICABLE",
			"visuals": null,
			"permalink": "vet-thuong-cuoi-cung-le-quyen",
			"title": "Vet Thuong Cuoi Cung - Le Quyen",
			"description": "",
			"track_type": "",
			"last_modified": "2011/12/31 11:38:51 +0000",
			"artwork_url": null,
			"id": 31612786,
			"kind": "track",
			"download_count": 100,
			"secret_token": null,
			"comment_count": 0,
			"reposts_count": 5,
			"download_url": "https://api.soundcloud.com/tracks/31612786/download",
			"permalink_url": "https://soundcloud.com/phonho3/vet-thuong-cuoi-cung-le-quyen",
			"stream_url": "https://api.soundcloud.com/tracks/31612786/stream",
			"likes_count": 15,
			"uri": "https://api.soundcloud.com/tracks/31612786",
			"playback_count": 8720
		}, {
			"user": {
				"full_name": "nguyen nguyen",
				"country": "Vietnam",
				"city": "",
				"track_count": 25,
				"followers_count": 9,
				"followings_count": 0,
				"public_favorites_count": 0,
				"groups_count": 0,
				"description": null,
				"plan": "Free",
				"id": 9957392,
				"uri": "https://api.soundcloud.com/users/9957392",
				"username": "Phonho3",
				"kind": "user",
				"permalink": "phonho3",
				"permalink_url": "http://soundcloud.com/phonho3",
				"first_name": "nguyen",
				"avatar_url": "https://i1.sndcdn.com/avatars-000008358899-t3pei1-large.jpg",
				"last_modified": "2011/12/22 04:20:29 +0000"
			},
			"user_id": 9957392,
			"genre": "",
			"tag_list": "",
			"duration": 325713,
			"downloadable": true,
			"streamable": true,
			"original_content_size": 7857828,
			"commentable": true,
			"sharing": "public",
			"public": true,
			"created_at": "2011/12/26 04:33:01 +0000",
			"updated_at": "2012/01/03 03:43:13 +0000",
			"isrc": "",
			"state": "finished",
			"embeddable": true,
			"embeddable_by": "all",
			"license": "all-rights-reserved",
			"waveform_url": "https://w1.sndcdn.com/orwBR9595nS6_m.png",
			"feedable": false,
			"label_name": "",
			"release_date": "",
			"has_downloads_left": false,
			"purchase_title": null,
			"purchase_url": null,
			"policy": "ALLOW",
			"monetization_model": "NOT_APPLICABLE",
			"visuals": null,
			"permalink": "ai-kho-vi-ai-le-quyen",
			"title": "Ai Kho Vi Ai - Le Quyen",
			"description": "",
			"track_type": "",
			"last_modified": "2012/01/03 03:43:13 +0000",
			"artwork_url": null,
			"id": 31612723,
			"kind": "track",
			"download_count": 100,
			"secret_token": null,
			"comment_count": 0,
			"reposts_count": 0,
			"download_url": "https://api.soundcloud.com/tracks/31612723/download",
			"permalink_url": "https://soundcloud.com/phonho3/ai-kho-vi-ai-le-quyen",
			"stream_url": "https://api.soundcloud.com/tracks/31612723/stream",
			"likes_count": 14,
			"uri": "https://api.soundcloud.com/tracks/31612723",
			"playback_count": 7571
		}, {
			"user": {
				"full_name": "nguyen nguyen",
				"country": "Vietnam",
				"city": "",
				"track_count": 25,
				"followers_count": 9,
				"followings_count": 0,
				"public_favorites_count": 0,
				"groups_count": 0,
				"description": null,
				"plan": "Free",
				"id": 9957392,
				"uri": "https://api.soundcloud.com/users/9957392",
				"username": "Phonho3",
				"kind": "user",
				"permalink": "phonho3",
				"permalink_url": "http://soundcloud.com/phonho3",
				"first_name": "nguyen",
				"avatar_url": "https://i1.sndcdn.com/avatars-000008358899-t3pei1-large.jpg",
				"last_modified": "2011/12/22 04:20:29 +0000"
			},
			"user_id": 9957392,
			"genre": "",
			"tag_list": "",
			"duration": 312386,
			"downloadable": true,
			"streamable": true,
			"original_content_size": 7536836,
			"commentable": true,
			"sharing": "public",
			"public": true,
			"created_at": "2011/12/26 04:33:25 +0000",
			"updated_at": "2012/01/11 03:41:16 +0000",
			"isrc": "",
			"state": "finished",
			"embeddable": true,
			"embeddable_by": "all",
			"license": "all-rights-reserved",
			"waveform_url": "https://w1.sndcdn.com/ZUJ3loh4afyt_m.png",
			"feedable": false,
			"label_name": "",
			"release_date": "",
			"has_downloads_left": false,
			"purchase_title": null,
			"purchase_url": null,
			"policy": "ALLOW",
			"monetization_model": "NOT_APPLICABLE",
			"visuals": null,
			"permalink": "khong-gio-roi-le-quyen",
			"title": "Khong Gio Roi - Le Quyen",
			"description": "",
			"track_type": "",
			"last_modified": "2012/01/11 03:41:16 +0000",
			"artwork_url": null,
			"id": 31612733,
			"kind": "track",
			"download_count": 100,
			"secret_token": null,
			"comment_count": 0,
			"reposts_count": 4,
			"download_url": "https://api.soundcloud.com/tracks/31612733/download",
			"permalink_url": "https://soundcloud.com/phonho3/khong-gio-roi-le-quyen",
			"stream_url": "https://api.soundcloud.com/tracks/31612733/stream",
			"likes_count": 17,
			"uri": "https://api.soundcloud.com/tracks/31612733",
			"playback_count": 7979
		}
	],
	"facets": null,
	"total_results": 2420,
	"qid": "",
	"query_urn": "soundcloud:search:d68655a1defa469eb0cc4a5c143d5627",
	"next_href": "https://api-v2.soundcloud.com/search?limit=5&q=Le%20Quyen&offset=30&query_urn=soundcloud%3Asearch%3Ad68655a1defa469eb0cc4a5c143d5627"
}